U BLOX Neo-6m-0-001 : Module GPS arduino ESP32

Pin utiliser : 
Boot --> 35
VCC --> 3V
RX --> 32(TX)
TX --> 33(RX)
GND --> GND
PPS --> 25

Après modifications les ports sont alors :
Boot --> 35
VCC --> 5V
RXGPS --> 16(TXarduino)
TXGPS --> 23(RXarduino)
GND --> GND

blanc 23 
rouge 3.3
noir gnd